…
set.seed(123)
lower <- as.Date("2019-01-01") + sample(10, 10, replace = TRUE)
upper <- lower + sample(3, 10, replace = TRUE)
haystack <- data_frame(lower = lower, upper = upper)

# (values >= lower) & (values <= upper)
matches <- vec_locate_matches(needles, haystack, condition = c(">=", "<="))

data_frame(
  lower = vec_slice(lower, matches$haystack),
  value = vec_slice(values, matches$needle),
  upper = vec_slice(upper, matches$haystack)
)
#> # A tibble: 22 × 3
#>    lower      value      upper     
#>    <date>     <date>     <date>    
#>  1 NA         2019-01-01 NA        
#>  2 NA         2019-01-02 NA        
#>  3 2019-01-03 2019-01-03 2019-01-06
#>  4 2019-01-04 2019-01-04 2019-01-07
#>  5 2019-01-04 2019-01-04 2019-01-05
#>  6 2019-01-03 2019-01-04 2019-01-06
#>  7 2019-01-04 2019-01-05 2019-01-07
#>  8 2019-01-04 2019-01-05 2019-01-05
#>  9 2019-01-03 2019-01-05 2019-01-06
#> 10 2019-01-05 2019-01-05 2019-01-06
#> # ℹ 12 more rows
```
